…
<!-- end list -->

``` r
MeanDeltaAge <- DeltaNoNA %>%
  group_by(a_age_dv) %>%
  summarise(MeanDelta = mean(Delta, na.rm = TRUE))

MeanDeltaAge
```

    ## # A tibble: 80 x 2
    ##    a_age_dv MeanDelta
    ##       <int>     <dbl>
    ##  1       15     19.4 
    ##  2       16      8.36
    ##  3       17      6.31
    ##  4       18      9.73
    ##  5       19      7.35
    ##  6       20      5.32
    ##  7       21      5.65
    ##  8       22      5.26
    ##  9       23      4.36
    ## 10       24      4.02
    ## # … with 70 more rows
…
